[
  {
    "name": "Google",
    "url": "https://www.google.com",
    "icon": "https://favicons.githubusercontent.com/www.google.com",
    "slug": "google",
    "status": "up",
    "uptime": "100.00%",
    "uptimeDay": "100.00%",
    "uptimeWeek": "100.00%",
    "uptimeMonth": "100.00%",
    "uptimeYear": "100.00%",
    "time": 89,
    "timeDay": 66,
    "timeWeek": 120,
    "timeMonth": 112,
    "timeYear": 89,
    "dailyMinutesDown": {}
  },
  {
    "name": "Wikipedia",
    "url": "https://en.wikipedia.org",
    "icon": "https://favicons.githubusercontent.com/en.wikipedia.org",
    "slug": "wikipedia",
    "status": "up",
    "uptime": "100.00%",
    "uptimeDay": "100.00%",
    "uptimeWeek": "100.00%",
    "uptimeMonth": "100.00%",
    "uptimeYear": "100.00%",
    "time": 155,
    "timeDay": 184,
    "timeWeek": 214,
    "timeMonth": 339,
    "timeYear": 155,
    "dailyMinutesDown": {}
  },
  {
    "name": "Hacker News",
    "url": "https://news.ycombinator.com",
    "icon": "https://favicons.githubusercontent.com/news.ycombinator.com",
    "slug": "hacker-news",
    "status": "up",
    "uptime": "100.00%",
    "uptimeDay": "100.00%",
    "uptimeWeek": "100.00%",
    "uptimeMonth": "100.00%",
    "uptimeYear": "100.00%",
    "time": 381,
    "timeDay": 329,
    "timeWeek": 356,
    "timeMonth": 381,
    "timeYear": 381,
    "dailyMinutesDown": {}
  },
  {
    "name": "Test Broken Site",
    "url": "https://thissitedoesnotexist.koj.co",
    "icon": "https://favicons.githubusercontent.com/thissitedoesnotexist.koj.co",
    "slug": "test-broken-site",
    "status": "down",
    "uptime": "100.00%",
    "uptimeDay": "100.00%",
    "uptimeWeek": "100.00%",
    "uptimeMonth": "100.00%",
    "uptimeYear": "100.00%",
    "time": 543,
    "timeDay": 0,
    "timeWeek": 0,
    "timeMonth": 0,
    "timeYear": 543,
    "dailyMinutesDown": {}
  }
]